<svg width="26" height="24" viewBox="0 0 26 24" fill="none" xmlns="http://www.w3.org/2000/svg">
<path d="M9.91581 7L9.70878 7.47905C9.37454 8.25243 9.29053 9.10637 9.46792 9.92729C9.73859 11.1799 10.7647 12.1473 12.0612 12.3723L12.1753 12.3921C12.5865 12.4635 13.0074 12.4635 13.4186 12.3921L13.5328 12.3723C14.8292 12.1473 15.8553 11.1799 16.126 9.92729C16.3034 9.10637 16.2194 8.25243 15.8852 7.47905L15.6781 7" stroke="#302F3C" stroke-width="1.5" stroke-linecap="round"/>
<path d="M21.2562 15.143C20.6695 17.6504 18.664 19.6204 16.0923 20.2251C13.931 20.7334 11.6634 20.7334 9.5021 20.2251C6.93037 19.6204 4.92487 17.6504 4.33817 15.143C3.81397 12.9026 3.94146 10.5648 4.70638 8.39084L4.82002 8.06787C5.66168 5.67585 7.76425 3.91013 10.3216 3.44766L11.0219 3.32102C12.1954 3.10881 13.3991 3.10881 14.5725 3.32102L15.2728 3.44766C17.8302 3.91013 19.9328 5.67586 20.7744 8.06789L20.888 8.39084C21.653 10.5648 21.7804 12.9026 21.2562 15.143Z" stroke="#302F3C" stroke-width="1.5"/>
</svg>
